%YAML 1.1
%TAG !u! tag:unity3d.com,2011:
--- !u!181963792 &2655988077585873504
Preset:
  m_ObjectHideFlags: 0
  m_CorrespondingSourceObject: {fileID: 0}
  m_PrefabInstance: {fileID: 0}
  m_PrefabAsset: {fileID: 0}
  m_Name: TextMeshProUGUI
  m_TargetType:
    m_NativeTypeID: 114
    m_ManagedTypePPtr: {fileID: 11500000, guid: f4688fdb7df04437aeb418b961361dc5,
      type: 3}
    m_ManagedTypeFallback: 
  m_Properties:
  - target: {fileID: 0}
    propertyPath: m_Enabled
    value: 1
    objectReference: {fileID: 0}
  - target: {fileID: 0}
    propertyPath: m_EditorHideFlags
    value: 0
    objectReference: {fileID: 0}
  - target: {fileID: 0}
    propertyPath: m_EditorClassIdentifier
    value: 
    objectReference: {fileID: 0}
  - target: {fileID: 0}
    propertyPath: m_Material
    value: 
    objectReference: {fileID: 0}
  - target: {fileID: 0}
    propertyPath: m_Color.r
    value: 1
    objectReference: {fileID: 0}
  - target: {fileID: 0}
    propertyPath: m_Color.g
    value: 1
    objectReference: {fileID: 0}
  - target: {fileID: 0}
    propertyPath: m_Color.b
    value: 1
    objectReference: {fileID: 0}
  - target: {fileID: 0}
    propertyPath: m_Color.a
    value: 1
    objectReference: {fileID: 0}
  - target: {fileID: 0}
    propertyPath: m_RaycastTarget
    value: 0
    objectReference: {fileID: 0}
  - target: {fileID: 0}
    propertyPath: m_Maskable
    value: 0
    objectReference: {fileID: 0}
  - target: {fileID: 0}
    propertyPath: m_OnCullStateChanged.m_PersistentCalls.m_Calls.Array.size
    value: 0
    objectReference: {fileID: 0}
  - target: {fileID: 0}
    propertyPath: m_text
    value: New Text
    objectReference: {fileID: 0}
  - target: {fileID: 0}
    propertyPath: m_isRightToLeft
    value: 0
    objectReference: {fileID: 0}
  - target: {fileID: 0}
    propertyPath: m_fontAsset
    value: 
    objectReference: {fileID: 11400000, guid: 8f586378b4e144a9851e7b34d9b748ee, type: 2}
  - target: {fileID: 0}
    propertyPath: m_sharedMaterial
    value: 
    objectReference: {fileID: -447267251371838918, guid: bb47860b363c348e88863c954f3e79be,
      type: 2}
  - target: {fileID: 0}
    propertyPath: m_fontSharedMaterials.Array.size
    value: 0
    objectReference: {fileID: 0}
  - target: {fileID: 0}
    propertyPath: m_fontMaterial
    value: 
    objectReference: {fileID: 0}
  - target: {fileID: 0}
    propertyPath: m_fontMaterials.Array.size
    value: 0
    objectReference: {fileID: 0}
  - target: {fileID: 0}
    propertyPath: m_fontColor32.rgba
    value: 4294967295
    objectReference: {fileID: 0}
  - target: {fileID: 0}
    propertyPath: m_fontColor.r
    value: 1
    objectReference: {fileID: 0}
  - target: {fileID: 0}
    propertyPath: m_fontColor.g
    value: 1
    objectReference: {fileID: 0}
  - target: {fileID: 0}
    propertyPath: m_fontColor.b
    value: 1
    objectReference: {fileID: 0}
  - target: {fileID: 0}
    propertyPath: m_fontColor.a
    value: 1
    objectReference: {fileID: 0}
  - target: {fileID: 0}
    propertyPath: m_enableVertexGradient
    value: 0
    objectReference: {fileID: 0}
  - target: {fileID: 0}
    propertyPath: m_colorMode
    value: 3
    objectReference: {fileID: 0}
  - target: {fileID: 0}
    propertyPath: m_fontColorGradient.topLeft.r
    value: 1
    objectReference: {fileID: 0}
  - target: {fileID: 0}
    propertyPath: m_fontColorGradient.topLeft.g
    value: 1
    objectReference: {fileID: 0}
  - target: {fileID: 0}
    propertyPath: m_fontColorGradient.topLeft.b
    value: 1
    objectReference: {fileID: 0}
  - target: {fileID: 0}
    propertyPath: m_fontColorGradient.topLeft.a
    value: 1
    objectReference: {fileID: 0}
  - target: {fileID: 0}
    propertyPath: m_fontColorGradient.topRight.r
    value: 1
    objectReference: {fileID: 0}
  - target: {fileID: 0}
    propertyPath: m_fontColorGradient.topRight.g
    value: 1
    objectReference: {fileID: 0}
  - target: {fileID: 0}
    propertyPath: m_fontColorGradient.topRight.b
    value: 1
    objectReference: {fileID: 0}
  - target: {fileID: 0}
    propertyPath: m_fontColorGradient.topRight.a
    value: 1
    objectReference: {fileID: 0}
  - target: {fileID: 0}
    propertyPath: m_fontColorGradient.bottomLeft.r
    value: 1
    objectReference: {fileID: 0}
  - target: {fileID: 0}
    propertyPath: m_fontColorGradient.bottomLeft.g
    value: 1
    objectReference: {fileID: 0}
  - target: {fileID: 0}
    propertyPath: m_fontColorGradient.bottomLeft.b
    value: 1
    objectReference: {fileID: 0}
  - target: {fileID: 0}
    propertyPath: m_fontColorGradient.bottomLeft.a
    value: 1
    objectReference: {fileID: 0}
  - target: {fileID: 0}
    propertyPath: m_fontColorGradient.bottomRight.r
    value: 1
    objectReference: {fileID: 0}
  - target: {fileID: 0}
    propertyPath: m_fontColorGradient.bottomRight.g
    value: 1
    objectReference: {fileID: 0}
  - target: {fileID: 0}
    propertyPath: m_fontColorGradient.bottomRight.b
    value: 1
    objectReference: {fileID: 0}
  - target: {fileID: 0}
    propertyPath: m_fontColorGradient.bottomRight.a
    value: 1
    objectReference: {fileID: 0}
  - target: {fileID: 0}
    propertyPath: m_fontColorGradientPreset
    value: 
    objectReference: {fileID: 0}
  - target: {fileID: 0}
    propertyPath: m_spriteAsset
    value: 
    objectReference: {fileID: 0}
  - target: {fileID: 0}
    propertyPath: m_tintAllSprites
    value: 0
    objectReference: {fileID: 0}
  - target: {fileID: 0}
    propertyPath: m_StyleSheet
    value: 
    objectReference: {fileID: 0}
  - target: {fileID: 0}
    propertyPath: m_TextStyleHashCode
    value: -1183493901
    objectReference: {fileID: 0}
  - target: {fileID: 0}
    propertyPath: m_overrideHtmlColors
    value: 0
    objectReference: {fileID: 0}
  - target: {fileID: 0}
    propertyPath: m_faceColor.rgba
    value: 4294967295
    objectReference: {fileID: 0}
  - target: {fileID: 0}
    propertyPath: m_fontSize
    value: 71.1
    objectReference: {fileID: 0}
  - target: {fileID: 0}
    propertyPath: m_fontSizeBase
    value: 71.1
    objectReference: {fileID: 0}
  - target: {fileID: 0}
    propertyPath: m_fontWeight
    value: 400
    objectReference: {fileID: 0}
  - target: {fileID: 0}
    propertyPath: m_enableAutoSizing
    value: 0
    objectReference: {fileID: 0}
  - target: {fileID: 0}
    propertyPath: m_fontSizeMin
    value: 18
    objectReference: {fileID: 0}
  - target: {fileID: 0}
    propertyPath: m_fontSizeMax
    value: 72
    objectReference: {fileID: 0}
  - target: {fileID: 0}
    propertyPath: m_fontStyle
    value: 0
    objectReference: {fileID: 0}
  - target: {fileID: 0}
    propertyPath: m_HorizontalAlignment
    value: 2
    objectReference: {fileID: 0}
  - target: {fileID: 0}
    propertyPath: m_VerticalAlignment
    value: 512
    objectReference: {fileID: 0}
  - target: {fileID: 0}
    propertyPath: m_textAlignment
    value: 65535
    objectReference: {fileID: 0}
  - target: {fileID: 0}
    propertyPath: m_characterSpacing
    value: 0
    objectReference: {fileID: 0}
  - target: {fileID: 0}
    propertyPath: m_wordSpacing
    value: 0
    objectReference: {fileID: 0}
  - target: {fileID: 0}
    propertyPath: m_lineSpacing
    value: 0
    objectReference: {fileID: 0}
  - target: {fileID: 0}
    propertyPath: m_lineSpacingMax
    value: 0
    objectReference: {fileID: 0}
  - target: {fileID: 0}
    propertyPath: m_paragraphSpacing
    value: 0
    objectReference: {fileID: 0}
  - target: {fileID: 0}
    propertyPath: m_charWidthMaxAdj
    value: 0
    objectReference: {fileID: 0}
  - target: {fileID: 0}
    propertyPath: m_enableWordWrapping
    value: 0
    objectReference: {fileID: 0}
  - target: {fileID: 0}
    propertyPath: m_wordWrappingRatios
    value: 0.4
    objectReference: {fileID: 0}
  - target: {fileID: 0}
    propertyPath: m_overflowMode
    value: 0
    objectReference: {fileID: 0}
  - target: {fileID: 0}
    propertyPath: m_linkedTextComponent
    value: 
    objectReference: {fileID: 0}
  - target: {fileID: 0}
    propertyPath: parentLinkedComponent
    value: 
    objectReference: {fileID: 0}
  - target: {fileID: 0}
    propertyPath: m_enableKerning
    value: 0
    objectReference: {fileID: 0}
  - target: {fileID: 0}
    propertyPath: m_enableExtraPadding
    value: 0
    objectReference: {fileID: 0}
  - target: {fileID: 0}
    propertyPath: checkPaddingRequired
    value: 0
    objectReference: {fileID: 0}
  - target: {fileID: 0}
    propertyPath: m_isRichText
    value: 0
    objectReference: {fileID: 0}
  - target: {fileID: 0}
    propertyPath: m_parseCtrlCharacters
    value: 0
    objectReference: {fileID: 0}
  - target: {fileID: 0}
    propertyPath: m_isOrthographic
    value: 1
    objectReference: {fileID: 0}
  - target: {fileID: 0}
    propertyPath: m_isCullingEnabled
    value: 0
    objectReference: {fileID: 0}
  - target: {fileID: 0}
    propertyPath: m_horizontalMapping
    value: 0
    objectReference: {fileID: 0}
  - target: {fileID: 0}
    propertyPath: m_verticalMapping
    value: 0
    objectReference: {fileID: 0}
  - target: {fileID: 0}
    propertyPath: m_uvLineOffset
    value: 0
    objectReference: {fileID: 0}
  - target: {fileID: 0}
    propertyPath: m_geometrySortingOrder
    value: 0
    objectReference: {fileID: 0}
  - target: {fileID: 0}
    propertyPath: m_IsTextObjectScaleStatic
    value: 0
    objectReference: {fileID: 0}
  - target: {fileID: 0}
    propertyPath: m_VertexBufferAutoSizeReduction
    value: 1
    objectReference: {fileID: 0}
  - target: {fileID: 0}
    propertyPath: m_useMaxVisibleDescender
    value: 0
    objectReference: {fileID: 0}
  - target: {fileID: 0}
    propertyPath: m_pageToDisplay
    value: 1
    objectReference: {fileID: 0}
  - target: {fileID: 0}
    propertyPath: m_margin.x
    value: 0
    objectReference: {fileID: 0}
  - target: {fileID: 0}
    propertyPath: m_margin.y
    value: 0
    objectReference: {fileID: 0}
  - target: {fileID: 0}
    propertyPath: m_margin.z
    value: 0
    objectReference: {fileID: 0}
  - target: {fileID: 0}
    propertyPath: m_margin.w
    value: 0
    objectReference: {fileID: 0}
  - target: {fileID: 0}
    propertyPath: m_isUsingLegacyAnimationComponent
    value: 0
    objectReference: {fileID: 0}
  - target: {fileID: 0}
    propertyPath: m_isVolumetricText
    value: 0
    objectReference: {fileID: 0}
  - target: {fileID: 0}
    propertyPath: m_hasFontAssetChanged
    value: 1
    objectReference: {fileID: 0}
  - target: {fileID: 0}
    propertyPath: m_baseMaterial
    value: 
    objectReference: {fileID: 0}
  - target: {fileID: 0}
    propertyPath: m_maskOffset.x
    value: 0
    objectReference: {fileID: 0}
  - target: {fileID: 0}
    propertyPath: m_maskOffset.y
    value: 0
    objectReference: {fileID: 0}
  - target: {fileID: 0}
    propertyPath: m_maskOffset.z
    value: 0
    objectReference: {fileID: 0}
  - target: {fileID: 0}
    propertyPath: m_maskOffset.w
    value: 0
    objectReference: {fileID: 0}
