%YAML 1.1
%TAG !u! tag:unity3d.com,2011:
--- !u!181963792 &2655988077585873504
Preset:
  m_ObjectHideFlags: 0
  m_CorrespondingSourceObject: {fileID: 0}
  m_PrefabInstance: {fileID: 0}
  m_PrefabAsset: {fileID: 0}
  m_Name: AnimationClip_Importer
  m_TargetType:
    m_NativeTypeID: 74
    m_ManagedTypePPtr: {fileID: 0}
    m_ManagedTypeFallback: 
  m_Properties:
  - target: {fileID: 0}
    propertyPath: m_Legacy
    value: 0
    objectReference: {fileID: 0}
  - target: {fileID: 0}
    propertyPath: m_Compressed
    value: 0
    objectReference: {fileID: 0}
  - target: {fileID: 0}
    propertyPath: m_UseHighQualityCurve
    value: 1
    objectReference: {fileID: 0}
  - target: {fileID: 0}
    propertyPath: m_RotationCurves.Array.size
    value: 0
    objectReference: {fileID: 0}
  - target: {fileID: 0}
    propertyPath: m_CompressedRotationCurves.Array.size
    value: 0
    objectReference: {fileID: 0}
  - target: {fileID: 0}
    propertyPath: m_EulerCurves.Array.size
    value: 1
    objectReference: {fileID: 0}
  - target: {fileID: 0}
    propertyPath: m_EulerCurves.Array.data[0].curve.m_Curve.Array.size
    value: 4
    objectReference: {fileID: 0}
  - target: {fileID: 0}
    propertyPath: m_EulerCurves.Array.data[0].curve.m_Curve.Array.data[0].time
    value: 0
    objectReference: {fileID: 0}
  - target: {fileID: 0}
    propertyPath: m_EulerCurves.Array.data[0].curve.m_Curve.Array.data[0].value.x
    value: 0
    objectReference: {fileID: 0}
  - target: {fileID: 0}
    propertyPath: m_EulerCurves.Array.data[0].curve.m_Curve.Array.data[0].value.y
    value: 0
    objectReference: {fileID: 0}
  - target: {fileID: 0}
    propertyPath: m_EulerCurves.Array.data[0].curve.m_Curve.Array.data[0].value.z
    value: 180
    objectReference: {fileID: 0}
  - target: {fileID: 0}
    propertyPath: m_EulerCurves.Array.data[0].curve.m_Curve.Array.data[0].inSlope.x
    value: 0
    objectReference: {fileID: 0}
  - target: {fileID: 0}
    propertyPath: m_EulerCurves.Array.data[0].curve.m_Curve.Array.data[0].inSlope.y
    value: 0
    objectReference: {fileID: 0}
  - target: {fileID: 0}
    propertyPath: m_EulerCurves.Array.data[0].curve.m_Curve.Array.data[0].inSlope.z
    value: 0
    objectReference: {fileID: 0}
  - target: {fileID: 0}
    propertyPath: m_EulerCurves.Array.data[0].curve.m_Curve.Array.data[0].outSlope.x
    value: 0
    objectReference: {fileID: 0}
  - target: {fileID: 0}
    propertyPath: m_EulerCurves.Array.data[0].curve.m_Curve.Array.data[0].outSlope.y
    value: 0
    objectReference: {fileID: 0}
  - target: {fileID: 0}
    propertyPath: m_EulerCurves.Array.data[0].curve.m_Curve.Array.data[0].outSlope.z
    value: 0
    objectReference: {fileID: 0}
  - target: {fileID: 0}
    propertyPath: m_EulerCurves.Array.data[0].curve.m_Curve.Array.data[0].tangentMode
    value: 0
    objectReference: {fileID: 0}
  - target: {fileID: 0}
    propertyPath: m_EulerCurves.Array.data[0].curve.m_Curve.Array.data[0].weightedMode
    value: 0
    objectReference: {fileID: 0}
  - target: {fileID: 0}
    propertyPath: m_EulerCurves.Array.data[0].curve.m_Curve.Array.data[0].inWeight.x
    value: 0.33333334
    objectReference: {fileID: 0}
  - target: {fileID: 0}
    propertyPath: m_EulerCurves.Array.data[0].curve.m_Curve.Array.data[0].inWeight.y
    value: 0.33333334
    objectReference: {fileID: 0}
  - target: {fileID: 0}
    propertyPath: m_EulerCurves.Array.data[0].curve.m_Curve.Array.data[0].inWeight.z
    value: 0.33333334
    objectReference: {fileID: 0}
  - target: {fileID: 0}
    propertyPath: m_EulerCurves.Array.data[0].curve.m_Curve.Array.data[0].outWeight.x
    value: 0.33333334
    objectReference: {fileID: 0}
  - target: {fileID: 0}
    propertyPath: m_EulerCurves.Array.data[0].curve.m_Curve.Array.data[0].outWeight.y
    value: 0.33333334
    objectReference: {fileID: 0}
  - target: {fileID: 0}
    propertyPath: m_EulerCurves.Array.data[0].curve.m_Curve.Array.data[0].outWeight.z
    value: 0.33333334
    objectReference: {fileID: 0}
  - target: {fileID: 0}
    propertyPath: m_EulerCurves.Array.data[0].curve.m_Curve.Array.data[1].time
    value: 0.36666667
    objectReference: {fileID: 0}
  - target: {fileID: 0}
    propertyPath: m_EulerCurves.Array.data[0].curve.m_Curve.Array.data[1].value.x
    value: 0
    objectReference: {fileID: 0}
  - target: {fileID: 0}
    propertyPath: m_EulerCurves.Array.data[0].curve.m_Curve.Array.data[1].value.y
    value: 0
    objectReference: {fileID: 0}
  - target: {fileID: 0}
    propertyPath: m_EulerCurves.Array.data[0].curve.m_Curve.Array.data[1].value.z
    value: 35
    objectReference: {fileID: 0}
  - target: {fileID: 0}
    propertyPath: m_EulerCurves.Array.data[0].curve.m_Curve.Array.data[1].inSlope.x
    value: 0
    objectReference: {fileID: 0}
  - target: {fileID: 0}
    propertyPath: m_EulerCurves.Array.data[0].curve.m_Curve.Array.data[1].inSlope.y
    value: 0
    objectReference: {fileID: 0}
  - target: {fileID: 0}
    propertyPath: m_EulerCurves.Array.data[0].curve.m_Curve.Array.data[1].inSlope.z
    value: -189.70589
    objectReference: {fileID: 0}
  - target: {fileID: 0}
    propertyPath: m_EulerCurves.Array.data[0].curve.m_Curve.Array.data[1].outSlope.x
    value: 0
    objectReference: {fileID: 0}
  - target: {fileID: 0}
    propertyPath: m_EulerCurves.Array.data[0].curve.m_Curve.Array.data[1].outSlope.y
    value: 0
    objectReference: {fileID: 0}
  - target: {fileID: 0}
    propertyPath: m_EulerCurves.Array.data[0].curve.m_Curve.Array.data[1].outSlope.z
    value: -189.70589
    objectReference: {fileID: 0}
  - target: {fileID: 0}
    propertyPath: m_EulerCurves.Array.data[0].curve.m_Curve.Array.data[1].tangentMode
    value: 0
    objectReference: {fileID: 0}
  - target: {fileID: 0}
    propertyPath: m_EulerCurves.Array.data[0].curve.m_Curve.Array.data[1].weightedMode
    value: 0
    objectReference: {fileID: 0}
  - target: {fileID: 0}
    propertyPath: m_EulerCurves.Array.data[0].curve.m_Curve.Array.data[1].inWeight.x
    value: 0.33333334
    objectReference: {fileID: 0}
  - target: {fileID: 0}
    propertyPath: m_EulerCurves.Array.data[0].curve.m_Curve.Array.data[1].inWeight.y
    value: 0.33333334
    objectReference: {fileID: 0}
  - target: {fileID: 0}
    propertyPath: m_EulerCurves.Array.data[0].curve.m_Curve.Array.data[1].inWeight.z
    value: 0.33333334
    objectReference: {fileID: 0}
  - target: {fileID: 0}
    propertyPath: m_EulerCurves.Array.data[0].curve.m_Curve.Array.data[1].outWeight.x
    value: 0.33333334
    objectReference: {fileID: 0}
  - target: {fileID: 0}
    propertyPath: m_EulerCurves.Array.data[0].curve.m_Curve.Array.data[1].outWeight.y
    value: 0.33333334
    objectReference: {fileID: 0}
  - target: {fileID: 0}
    propertyPath: m_EulerCurves.Array.data[0].curve.m_Curve.Array.data[1].outWeight.z
    value: 0.33333334
    objectReference: {fileID: 0}
  - target: {fileID: 0}
    propertyPath: m_EulerCurves.Array.data[0].curve.m_Curve.Array.data[2].time
    value: 1.1333333
    objectReference: {fileID: 0}
  - target: {fileID: 0}
    propertyPath: m_EulerCurves.Array.data[0].curve.m_Curve.Array.data[2].value.x
    value: 0
    objectReference: {fileID: 0}
  - target: {fileID: 0}
    propertyPath: m_EulerCurves.Array.data[0].curve.m_Curve.Array.data[2].value.y
    value: 0
    objectReference: {fileID: 0}
  - target: {fileID: 0}
    propertyPath: m_EulerCurves.Array.data[0].curve.m_Curve.Array.data[2].value.z
    value: -35
    objectReference: {fileID: 0}
  - target: {fileID: 0}
    propertyPath: m_EulerCurves.Array.data[0].curve.m_Curve.Array.data[2].inSlope.x
    value: 0
    objectReference: {fileID: 0}
  - target: {fileID: 0}
    propertyPath: m_EulerCurves.Array.data[0].curve.m_Curve.Array.data[2].inSlope.y
    value: 0
    objectReference: {fileID: 0}
  - target: {fileID: 0}
    propertyPath: m_EulerCurves.Array.data[0].curve.m_Curve.Array.data[2].inSlope.z
    value: -189.70589
    objectReference: {fileID: 0}
  - target: {fileID: 0}
    propertyPath: m_EulerCurves.Array.data[0].curve.m_Curve.Array.data[2].outSlope.x
    value: 0
    objectReference: {fileID: 0}
  - target: {fileID: 0}
    propertyPath: m_EulerCurves.Array.data[0].curve.m_Curve.Array.data[2].outSlope.y
    value: 0
    objectReference: {fileID: 0}
  - target: {fileID: 0}
    propertyPath: m_EulerCurves.Array.data[0].curve.m_Curve.Array.data[2].outSlope.z
    value: -189.70589
    objectReference: {fileID: 0}
  - target: {fileID: 0}
    propertyPath: m_EulerCurves.Array.data[0].curve.m_Curve.Array.data[2].tangentMode
    value: 0
    objectReference: {fileID: 0}
  - target: {fileID: 0}
    propertyPath: m_EulerCurves.Array.data[0].curve.m_Curve.Array.data[2].weightedMode
    value: 0
    objectReference: {fileID: 0}
  - target: {fileID: 0}
    propertyPath: m_EulerCurves.Array.data[0].curve.m_Curve.Array.data[2].inWeight.x
    value: 0.33333334
    objectReference: {fileID: 0}
  - target: {fileID: 0}
    propertyPath: m_EulerCurves.Array.data[0].curve.m_Curve.Array.data[2].inWeight.y
    value: 0.33333334
    objectReference: {fileID: 0}
  - target: {fileID: 0}
    propertyPath: m_EulerCurves.Array.data[0].curve.m_Curve.Array.data[2].inWeight.z
    value: 0.33333334
    objectReference: {fileID: 0}
  - target: {fileID: 0}
    propertyPath: m_EulerCurves.Array.data[0].curve.m_Curve.Array.data[2].outWeight.x
    value: 0.33333334
    objectReference: {fileID: 0}
  - target: {fileID: 0}
    propertyPath: m_EulerCurves.Array.data[0].curve.m_Curve.Array.data[2].outWeight.y
    value: 0.33333334
    objectReference: {fileID: 0}
  - target: {fileID: 0}
    propertyPath: m_EulerCurves.Array.data[0].curve.m_Curve.Array.data[2].outWeight.z
    value: 0.33333334
    objectReference: {fileID: 0}
  - target: {fileID: 0}
    propertyPath: m_EulerCurves.Array.data[0].curve.m_Curve.Array.data[3].time
    value: 1.5
    objectReference: {fileID: 0}
  - target: {fileID: 0}
    propertyPath: m_EulerCurves.Array.data[0].curve.m_Curve.Array.data[3].value.x
    value: 0
    objectReference: {fileID: 0}
  - target: {fileID: 0}
    propertyPath: m_EulerCurves.Array.data[0].curve.m_Curve.Array.data[3].value.y
    value: 0
    objectReference: {fileID: 0}
  - target: {fileID: 0}
    propertyPath: m_EulerCurves.Array.data[0].curve.m_Curve.Array.data[3].value.z
    value: -180
    objectReference: {fileID: 0}
  - target: {fileID: 0}
    propertyPath: m_EulerCurves.Array.data[0].curve.m_Curve.Array.data[3].inSlope.x
    value: 0
    objectReference: {fileID: 0}
  - target: {fileID: 0}
    propertyPath: m_EulerCurves.Array.data[0].curve.m_Curve.Array.data[3].inSlope.y
    value: 0
    objectReference: {fileID: 0}
  - target: {fileID: 0}
    propertyPath: m_EulerCurves.Array.data[0].curve.m_Curve.Array.data[3].inSlope.z
    value: 0
    objectReference: {fileID: 0}
  - target: {fileID: 0}
    propertyPath: m_EulerCurves.Array.data[0].curve.m_Curve.Array.data[3].outSlope.x
    value: 0
    objectReference: {fileID: 0}
  - target: {fileID: 0}
    propertyPath: m_EulerCurves.Array.data[0].curve.m_Curve.Array.data[3].outSlope.y
    value: 0
    objectReference: {fileID: 0}
  - target: {fileID: 0}
    propertyPath: m_EulerCurves.Array.data[0].curve.m_Curve.Array.data[3].outSlope.z
    value: 0
    objectReference: {fileID: 0}
  - target: {fileID: 0}
    propertyPath: m_EulerCurves.Array.data[0].curve.m_Curve.Array.data[3].tangentMode
    value: 0
    objectReference: {fileID: 0}
  - target: {fileID: 0}
    propertyPath: m_EulerCurves.Array.data[0].curve.m_Curve.Array.data[3].weightedMode
    value: 0
    objectReference: {fileID: 0}
  - target: {fileID: 0}
    propertyPath: m_EulerCurves.Array.data[0].curve.m_Curve.Array.data[3].inWeight.x
    value: 0.33333334
    objectReference: {fileID: 0}
  - target: {fileID: 0}
    propertyPath: m_EulerCurves.Array.data[0].curve.m_Curve.Array.data[3].inWeight.y
    value: 0.33333334
    objectReference: {fileID: 0}
  - target: {fileID: 0}
    propertyPath: m_EulerCurves.Array.data[0].curve.m_Curve.Array.data[3].inWeight.z
    value: 0.33333334
    objectReference: {fileID: 0}
  - target: {fileID: 0}
    propertyPath: m_EulerCurves.Array.data[0].curve.m_Curve.Array.data[3].outWeight.x
    value: 0.33333334
    objectReference: {fileID: 0}
  - target: {fileID: 0}
    propertyPath: m_EulerCurves.Array.data[0].curve.m_Curve.Array.data[3].outWeight.y
    value: 0.33333334
    objectReference: {fileID: 0}
  - target: {fileID: 0}
    propertyPath: m_EulerCurves.Array.data[0].curve.m_Curve.Array.data[3].outWeight.z
    value: 0.33333334
    objectReference: {fileID: 0}
  - target: {fileID: 0}
    propertyPath: m_EulerCurves.Array.data[0].curve.m_PreInfinity
    value: 2
    objectReference: {fileID: 0}
  - target: {fileID: 0}
    propertyPath: m_EulerCurves.Array.data[0].curve.m_PostInfinity
    value: 2
    objectReference: {fileID: 0}
  - target: {fileID: 0}
    propertyPath: m_EulerCurves.Array.data[0].curve.m_RotationOrder
    value: 4
    objectReference: {fileID: 0}
  - target: {fileID: 0}
    propertyPath: m_EulerCurves.Array.data[0].path
    value: Container
    objectReference: {fileID: 0}
  - target: {fileID: 0}
    propertyPath: m_PositionCurves.Array.size
    value: 0
    objectReference: {fileID: 0}
  - target: {fileID: 0}
    propertyPath: m_ScaleCurves.Array.size
    value: 1
    objectReference: {fileID: 0}
  - target: {fileID: 0}
    propertyPath: m_ScaleCurves.Array.data[0].curve.m_Curve.Array.size
    value: 4
    objectReference: {fileID: 0}
  - target: {fileID: 0}
    propertyPath: m_ScaleCurves.Array.data[0].curve.m_Curve.Array.data[0].time
    value: 0
    objectReference: {fileID: 0}
  - target: {fileID: 0}
    propertyPath: m_ScaleCurves.Array.data[0].curve.m_Curve.Array.data[0].value.x
    value: 0
    objectReference: {fileID: 0}
  - target: {fileID: 0}
    propertyPath: m_ScaleCurves.Array.data[0].curve.m_Curve.Array.data[0].value.y
    value: 0
    objectReference: {fileID: 0}
  - target: {fileID: 0}
    propertyPath: m_ScaleCurves.Array.data[0].curve.m_Curve.Array.data[0].value.z
    value: 1
    objectReference: {fileID: 0}
  - target: {fileID: 0}
    propertyPath: m_ScaleCurves.Array.data[0].curve.m_Curve.Array.data[0].inSlope.x
    value: 0
    objectReference: {fileID: 0}
  - target: {fileID: 0}
    propertyPath: m_ScaleCurves.Array.data[0].curve.m_Curve.Array.data[0].inSlope.y
    value: 0
    objectReference: {fileID: 0}
  - target: {fileID: 0}
    propertyPath: m_ScaleCurves.Array.data[0].curve.m_Curve.Array.data[0].inSlope.z
    value: 0
    objectReference: {fileID: 0}
  - target: {fileID: 0}
    propertyPath: m_ScaleCurves.Array.data[0].curve.m_Curve.Array.data[0].outSlope.x
    value: 0
    objectReference: {fileID: 0}
  - target: {fileID: 0}
    propertyPath: m_ScaleCurves.Array.data[0].curve.m_Curve.Array.data[0].outSlope.y
    value: 0
    objectReference: {fileID: 0}
  - target: {fileID: 0}
    propertyPath: m_ScaleCurves.Array.data[0].curve.m_Curve.Array.data[0].outSlope.z
    value: 0
    objectReference: {fileID: 0}
  - target: {fileID: 0}
    propertyPath: m_ScaleCurves.Array.data[0].curve.m_Curve.Array.data[0].tangentMode
    value: 0
    objectReference: {fileID: 0}
  - target: {fileID: 0}
    propertyPath: m_ScaleCurves.Array.data[0].curve.m_Curve.Array.data[0].weightedMode
    value: 0
    objectReference: {fileID: 0}
  - target: {fileID: 0}
    propertyPath: m_ScaleCurves.Array.data[0].curve.m_Curve.Array.data[0].inWeight.x
    value: 0.33333334
    objectReference: {fileID: 0}
  - target: {fileID: 0}
    propertyPath: m_ScaleCurves.Array.data[0].curve.m_Curve.Array.data[0].inWeight.y
    value: 0.33333334
    objectReference: {fileID: 0}
  - target: {fileID: 0}
    propertyPath: m_ScaleCurves.Array.data[0].curve.m_Curve.Array.data[0].inWeight.z
    value: 0.33333334
    objectReference: {fileID: 0}
  - target: {fileID: 0}
    propertyPath: m_ScaleCurves.Array.data[0].curve.m_Curve.Array.data[0].outWeight.x
    value: 0.33333334
    objectReference: {fileID: 0}
  - target: {fileID: 0}
    propertyPath: m_ScaleCurves.Array.data[0].curve.m_Curve.Array.data[0].outWeight.y
    value: 0.33333334
    objectReference: {fileID: 0}
  - target: {fileID: 0}
    propertyPath: m_ScaleCurves.Array.data[0].curve.m_Curve.Array.data[0].outWeight.z
    value: 0.33333334
    objectReference: {fileID: 0}
  - target: {fileID: 0}
    propertyPath: m_ScaleCurves.Array.data[0].curve.m_Curve.Array.data[1].time
    value: 0.36666667
    objectReference: {fileID: 0}
  - target: {fileID: 0}
    propertyPath: m_ScaleCurves.Array.data[0].curve.m_Curve.Array.data[1].value.x
    value: 1
    objectReference: {fileID: 0}
  - target: {fileID: 0}
    propertyPath: m_ScaleCurves.Array.data[0].curve.m_Curve.Array.data[1].value.y
    value: 1
    objectReference: {fileID: 0}
  - target: {fileID: 0}
    propertyPath: m_ScaleCurves.Array.data[0].curve.m_Curve.Array.data[1].value.z
    value: 1
    objectReference: {fileID: 0}
  - target: {fileID: 0}
    propertyPath: m_ScaleCurves.Array.data[0].curve.m_Curve.Array.data[1].inSlope.x
    value: 0
    objectReference: {fileID: 0}
  - target: {fileID: 0}
    propertyPath: m_ScaleCurves.Array.data[0].curve.m_Curve.Array.data[1].inSlope.y
    value: 0
    objectReference: {fileID: 0}
  - target: {fileID: 0}
    propertyPath: m_ScaleCurves.Array.data[0].curve.m_Curve.Array.data[1].inSlope.z
    value: 0
    objectReference: {fileID: 0}
  - target: {fileID: 0}
    propertyPath: m_ScaleCurves.Array.data[0].curve.m_Curve.Array.data[1].outSlope.x
    value: 0
    objectReference: {fileID: 0}
  - target: {fileID: 0}
    propertyPath: m_ScaleCurves.Array.data[0].curve.m_Curve.Array.data[1].outSlope.y
    value: 0
    objectReference: {fileID: 0}
  - target: {fileID: 0}
    propertyPath: m_ScaleCurves.Array.data[0].curve.m_Curve.Array.data[1].outSlope.z
    value: 0
    objectReference: {fileID: 0}
  - target: {fileID: 0}
    propertyPath: m_ScaleCurves.Array.data[0].curve.m_Curve.Array.data[1].tangentMode
    value: 0
    objectReference: {fileID: 0}
  - target: {fileID: 0}
    propertyPath: m_ScaleCurves.Array.data[0].curve.m_Curve.Array.data[1].weightedMode
    value: 0
    objectReference: {fileID: 0}
  - target: {fileID: 0}
    propertyPath: m_ScaleCurves.Array.data[0].curve.m_Curve.Array.data[1].inWeight.x
    value: 0.33333334
    objectReference: {fileID: 0}
  - target: {fileID: 0}
    propertyPath: m_ScaleCurves.Array.data[0].curve.m_Curve.Array.data[1].inWeight.y
    value: 0.33333334
    objectReference: {fileID: 0}
  - target: {fileID: 0}
    propertyPath: m_ScaleCurves.Array.data[0].curve.m_Curve.Array.data[1].inWeight.z
    value: 0.33333334
    objectReference: {fileID: 0}
  - target: {fileID: 0}
    propertyPath: m_ScaleCurves.Array.data[0].curve.m_Curve.Array.data[1].outWeight.x
    value: 0.33333334
    objectReference: {fileID: 0}
  - target: {fileID: 0}
    propertyPath: m_ScaleCurves.Array.data[0].curve.m_Curve.Array.data[1].outWeight.y
    value: 0.33333334
    objectReference: {fileID: 0}
  - target: {fileID: 0}
    propertyPath: m_ScaleCurves.Array.data[0].curve.m_Curve.Array.data[1].outWeight.z
    value: 0.33333334
    objectReference: {fileID: 0}
  - target: {fileID: 0}
    propertyPath: m_ScaleCurves.Array.data[0].curve.m_Curve.Array.data[2].time
    value: 1.1333333
    objectReference: {fileID: 0}
  - target: {fileID: 0}
    propertyPath: m_ScaleCurves.Array.data[0].curve.m_Curve.Array.data[2].value.x
    value: 1
    objectReference: {fileID: 0}
  - target: {fileID: 0}
    propertyPath: m_ScaleCurves.Array.data[0].curve.m_Curve.Array.data[2].value.y
    value: 1
    objectReference: {fileID: 0}
  - target: {fileID: 0}
    propertyPath: m_ScaleCurves.Array.data[0].curve.m_Curve.Array.data[2].value.z
    value: 1
    objectReference: {fileID: 0}
  - target: {fileID: 0}
    propertyPath: m_ScaleCurves.Array.data[0].curve.m_Curve.Array.data[2].inSlope.x
    value: 0
    objectReference: {fileID: 0}
  - target: {fileID: 0}
    propertyPath: m_ScaleCurves.Array.data[0].curve.m_Curve.Array.data[2].inSlope.y
    value: 0
    objectReference: {fileID: 0}
  - target: {fileID: 0}
    propertyPath: m_ScaleCurves.Array.data[0].curve.m_Curve.Array.data[2].inSlope.z
    value: 0
    objectReference: {fileID: 0}
  - target: {fileID: 0}
    propertyPath: m_ScaleCurves.Array.data[0].curve.m_Curve.Array.data[2].outSlope.x
    value: 0
    objectReference: {fileID: 0}
  - target: {fileID: 0}
    propertyPath: m_ScaleCurves.Array.data[0].curve.m_Curve.Array.data[2].outSlope.y
    value: 0
    objectReference: {fileID: 0}
  - target: {fileID: 0}
    propertyPath: m_ScaleCurves.Array.data[0].curve.m_Curve.Array.data[2].outSlope.z
    value: 0
    objectReference: {fileID: 0}
  - target: {fileID: 0}
    propertyPath: m_ScaleCurves.Array.data[0].curve.m_Curve.Array.data[2].tangentMode
    value: 0
    objectReference: {fileID: 0}
  - target: {fileID: 0}
    propertyPath: m_ScaleCurves.Array.data[0].curve.m_Curve.Array.data[2].weightedMode
    value: 0
    objectReference: {fileID: 0}
  - target: {fileID: 0}
    propertyPath: m_ScaleCurves.Array.data[0].curve.m_Curve.Array.data[2].inWeight.x
    value: 0.33333334
    objectReference: {fileID: 0}
  - target: {fileID: 0}
    propertyPath: m_ScaleCurves.Array.data[0].curve.m_Curve.Array.data[2].inWeight.y
    value: 0.33333334
    objectReference: {fileID: 0}
  - target: {fileID: 0}
    propertyPath: m_ScaleCurves.Array.data[0].curve.m_Curve.Array.data[2].inWeight.z
    value: 0.33333334
    objectReference: {fileID: 0}
  - target: {fileID: 0}
    propertyPath: m_ScaleCurves.Array.data[0].curve.m_Curve.Array.data[2].outWeight.x
    value: 0.33333334
    objectReference: {fileID: 0}
  - target: {fileID: 0}
    propertyPath: m_ScaleCurves.Array.data[0].curve.m_Curve.Array.data[2].outWeight.y
    value: 0.33333334
    objectReference: {fileID: 0}
  - target: {fileID: 0}
    propertyPath: m_ScaleCurves.Array.data[0].curve.m_Curve.Array.data[2].outWeight.z
    value: 0.33333334
    objectReference: {fileID: 0}
  - target: {fileID: 0}
    propertyPath: m_ScaleCurves.Array.data[0].curve.m_Curve.Array.data[3].time
    value: 1.5
    objectReference: {fileID: 0}
  - target: {fileID: 0}
    propertyPath: m_ScaleCurves.Array.data[0].curve.m_Curve.Array.data[3].value.x
    value: 0
    objectReference: {fileID: 0}
  - target: {fileID: 0}
    propertyPath: m_ScaleCurves.Array.data[0].curve.m_Curve.Array.data[3].value.y
    value: 0
    objectReference: {fileID: 0}
  - target: {fileID: 0}
    propertyPath: m_ScaleCurves.Array.data[0].curve.m_Curve.Array.data[3].value.z
    value: 1
    objectReference: {fileID: 0}
  - target: {fileID: 0}
    propertyPath: m_ScaleCurves.Array.data[0].curve.m_Curve.Array.data[3].inSlope.x
    value: 0
    objectReference: {fileID: 0}
  - target: {fileID: 0}
    propertyPath: m_ScaleCurves.Array.data[0].curve.m_Curve.Array.data[3].inSlope.y
    value: 0
    objectReference: {fileID: 0}
  - target: {fileID: 0}
    propertyPath: m_ScaleCurves.Array.data[0].curve.m_Curve.Array.data[3].inSlope.z
    value: 0
    objectReference: {fileID: 0}
  - target: {fileID: 0}
    propertyPath: m_ScaleCurves.Array.data[0].curve.m_Curve.Array.data[3].outSlope.x
    value: 0
    objectReference: {fileID: 0}
  - target: {fileID: 0}
    propertyPath: m_ScaleCurves.Array.data[0].curve.m_Curve.Array.data[3].outSlope.y
    value: 0
    objectReference: {fileID: 0}
  - target: {fileID: 0}
    propertyPath: m_ScaleCurves.Array.data[0].curve.m_Curve.Array.data[3].outSlope.z
    value: 0
    objectReference: {fileID: 0}
  - target: {fileID: 0}
    propertyPath: m_ScaleCurves.Array.data[0].curve.m_Curve.Array.data[3].tangentMode
    value: 0
    objectReference: {fileID: 0}
  - target: {fileID: 0}
    propertyPath: m_ScaleCurves.Array.data[0].curve.m_Curve.Array.data[3].weightedMode
    value: 0
    objectReference: {fileID: 0}
  - target: {fileID: 0}
    propertyPath: m_ScaleCurves.Array.data[0].curve.m_Curve.Array.data[3].inWeight.x
    value: 0.33333334
    objectReference: {fileID: 0}
  - target: {fileID: 0}
    propertyPath: m_ScaleCurves.Array.data[0].curve.m_Curve.Array.data[3].inWeight.y
    value: 0.33333334
    objectReference: {fileID: 0}
  - target: {fileID: 0}
    propertyPath: m_ScaleCurves.Array.data[0].curve.m_Curve.Array.data[3].inWeight.z
    value: 0.33333334
    objectReference: {fileID: 0}
  - target: {fileID: 0}
    propertyPath: m_ScaleCurves.Array.data[0].curve.m_Curve.Array.data[3].outWeight.x
    value: 0.33333334
    objectReference: {fileID: 0}
  - target: {fileID: 0}
    propertyPath: m_ScaleCurves.Array.data[0].curve.m_Curve.Array.data[3].outWeight.y
    value: 0.33333334
    objectReference: {fileID: 0}
  - target: {fileID: 0}
    propertyPath: m_ScaleCurves.Array.data[0].curve.m_Curve.Array.data[3].outWeight.z
    value: 0.33333334
    objectReference: {fileID: 0}
  - target: {fileID: 0}
    propertyPath: m_ScaleCurves.Array.data[0].curve.m_PreInfinity
    value: 2
    objectReference: {fileID: 0}
  - target: {fileID: 0}
    propertyPath: m_ScaleCurves.Array.data[0].curve.m_PostInfinity
    value: 2
    objectReference: {fileID: 0}
  - target: {fileID: 0}
    propertyPath: m_ScaleCurves.Array.data[0].curve.m_RotationOrder
    value: 4
    objectReference: {fileID: 0}
  - target: {fileID: 0}
    propertyPath: m_ScaleCurves.Array.data[0].path
    value: Container
    objectReference: {fileID: 0}
  - target: {fileID: 0}
    propertyPath: m_FloatCurves.Array.size
    value: 0
    objectReference: {fileID: 0}
  - target: {fileID: 0}
    propertyPath: m_PPtrCurves.Array.size
    value: 0
    objectReference: {fileID: 0}
  - target: {fileID: 0}
    propertyPath: m_SampleRate
    value: 60
    objectReference: {fileID: 0}
  - target: {fileID: 0}
    propertyPath: m_WrapMode
    value: 0
    objectReference: {fileID: 0}
  - target: {fileID: 0}
    propertyPath: m_Bounds.m_Center.x
    value: 0
    objectReference: {fileID: 0}
  - target: {fileID: 0}
    propertyPath: m_Bounds.m_Center.y
    value: 0
    objectReference: {fileID: 0}
  - target: {fileID: 0}
    propertyPath: m_Bounds.m_Center.z
    value: 0
    objectReference: {fileID: 0}
  - target: {fileID: 0}
    propertyPath: m_Bounds.m_Extent.x
    value: 0
    objectReference: {fileID: 0}
  - target: {fileID: 0}
    propertyPath: m_Bounds.m_Extent.y
    value: 0
    objectReference: {fileID: 0}
  - target: {fileID: 0}
    propertyPath: m_Bounds.m_Extent.z
    value: 0
    objectReference: {fileID: 0}
  - target: {fileID: 0}
    propertyPath: m_ClipBindingConstant.genericBindings.Array.size
    value: 2
    objectReference: {fileID: 0}
  - target: {fileID: 0}
    propertyPath: m_ClipBindingConstant.genericBindings.Array.data[0].path
    value: 1163095736
    objectReference: {fileID: 0}
  - target: {fileID: 0}
    propertyPath: m_ClipBindingConstant.genericBindings.Array.data[0].attribute
    value: 4
    objectReference: {fileID: 0}
  - target: {fileID: 0}
    propertyPath: m_ClipBindingConstant.genericBindings.Array.data[0].script
    value: 
    objectReference: {fileID: 0}
  - target: {fileID: 0}
    propertyPath: m_ClipBindingConstant.genericBindings.Array.data[0].typeID
    value: 4
    objectReference: {fileID: 0}
  - target: {fileID: 0}
    propertyPath: m_ClipBindingConstant.genericBindings.Array.data[0].customType
    value: 4
    objectReference: {fileID: 0}
  - target: {fileID: 0}
    propertyPath: m_ClipBindingConstant.genericBindings.Array.data[0].isPPtrCurve
    value: 0
    objectReference: {fileID: 0}
  - target: {fileID: 0}
    propertyPath: m_ClipBindingConstant.genericBindings.Array.data[1].path
    value: 1163095736
    objectReference: {fileID: 0}
  - target: {fileID: 0}
    propertyPath: m_ClipBindingConstant.genericBindings.Array.data[1].attribute
    value: 3
    objectReference: {fileID: 0}
  - target: {fileID: 0}
    propertyPath: m_ClipBindingConstant.genericBindings.Array.data[1].script
    value: 
    objectReference: {fileID: 0}
  - target: {fileID: 0}
    propertyPath: m_ClipBindingConstant.genericBindings.Array.data[1].typeID
    value: 4
    objectReference: {fileID: 0}
  - target: {fileID: 0}
    propertyPath: m_ClipBindingConstant.genericBindings.Array.data[1].customType
    value: 0
    objectReference: {fileID: 0}
  - target: {fileID: 0}
    propertyPath: m_ClipBindingConstant.genericBindings.Array.data[1].isPPtrCurve
    value: 0
    objectReference: {fileID: 0}
  - target: {fileID: 0}
    propertyPath: m_ClipBindingConstant.pptrCurveMapping.Array.size
    value: 0
    objectReference: {fileID: 0}
  - target: {fileID: 0}
    propertyPath: m_AnimationClipSettings.m_AdditiveReferencePoseClip
    value: 
    objectReference: {fileID: 0}
  - target: {fileID: 0}
    propertyPath: m_AnimationClipSettings.m_AdditiveReferencePoseTime
    value: 0
    objectReference: {fileID: 0}
  - target: {fileID: 0}
    propertyPath: m_AnimationClipSettings.m_StartTime
    value: 0
    objectReference: {fileID: 0}
  - target: {fileID: 0}
    propertyPath: m_AnimationClipSettings.m_StopTime
    value: 1.5
    objectReference: {fileID: 0}
  - target: {fileID: 0}
    propertyPath: m_AnimationClipSettings.m_OrientationOffsetY
    value: 0
    objectReference: {fileID: 0}
  - target: {fileID: 0}
    propertyPath: m_AnimationClipSettings.m_Level
    value: 0
    objectReference: {fileID: 0}
  - target: {fileID: 0}
    propertyPath: m_AnimationClipSettings.m_CycleOffset
    value: 0
    objectReference: {fileID: 0}
  - target: {fileID: 0}
    propertyPath: m_AnimationClipSettings.m_HasAdditiveReferencePose
    value: 0
    objectReference: {fileID: 0}
  - target: {fileID: 0}
    propertyPath: m_AnimationClipSettings.m_LoopTime
    value: 0
    objectReference: {fileID: 0}
  - target: {fileID: 0}
    propertyPath: m_AnimationClipSettings.m_LoopBlend
    value: 0
    objectReference: {fileID: 0}
  - target: {fileID: 0}
    propertyPath: m_AnimationClipSettings.m_LoopBlendOrientation
    value: 0
    objectReference: {fileID: 0}
  - target: {fileID: 0}
    propertyPath: m_AnimationClipSettings.m_LoopBlendPositionY
    value: 0
    objectReference: {fileID: 0}
  - target: {fileID: 0}
    propertyPath: m_AnimationClipSettings.m_LoopBlendPositionXZ
    value: 0
    objectReference: {fileID: 0}
  - target: {fileID: 0}
    propertyPath: m_AnimationClipSettings.m_KeepOriginalOrientation
    value: 0
    objectReference: {fileID: 0}
  - target: {fileID: 0}
    propertyPath: m_AnimationClipSettings.m_KeepOriginalPositionY
    value: 1
    objectReference: {fileID: 0}
  - target: {fileID: 0}
    propertyPath: m_AnimationClipSettings.m_KeepOriginalPositionXZ
    value: 0
    objectReference: {fileID: 0}
  - target: {fileID: 0}
    propertyPath: m_AnimationClipSettings.m_HeightFromFeet
    value: 0
    objectReference: {fileID: 0}
  - target: {fileID: 0}
    propertyPath: m_AnimationClipSettings.m_Mirror
    value: 0
    objectReference: {fileID: 0}
  - target: {fileID: 0}
    propertyPath: m_EditorCurves.Array.size
    value: 6
    objectReference: {fileID: 0}
  - target: {fileID: 0}
    propertyPath: m_EditorCurves.Array.data[0].curve.m_Curve.Array.size
    value: 4
    objectReference: {fileID: 0}
  - target: {fileID: 0}
    propertyPath: m_EditorCurves.Array.data[0].curve.m_Curve.Array.data[0].time
    value: 0
    objectReference: {fileID: 0}
  - target: {fileID: 0}
    propertyPath: m_EditorCurves.Array.data[0].curve.m_Curve.Array.data[0].value
    value: 0
    objectReference: {fileID: 0}
  - target: {fileID: 0}
    propertyPath: m_EditorCurves.Array.data[0].curve.m_Curve.Array.data[0].inSlope
    value: 0
    objectReference: {fileID: 0}
  - target: {fileID: 0}
    propertyPath: m_EditorCurves.Array.data[0].curve.m_Curve.Array.data[0].outSlope
    value: 0
    objectReference: {fileID: 0}
  - target: {fileID: 0}
    propertyPath: m_EditorCurves.Array.data[0].curve.m_Curve.Array.data[0].tangentMode
    value: 136
    objectReference: {fileID: 0}
  - target: {fileID: 0}
    propertyPath: m_EditorCurves.Array.data[0].curve.m_Curve.Array.data[0].weightedMode
    value: 0
    objectReference: {fileID: 0}
  - target: {fileID: 0}
    propertyPath: m_EditorCurves.Array.data[0].curve.m_Curve.Array.data[0].inWeight
    value: 0.33333334
    objectReference: {fileID: 0}
  - target: {fileID: 0}
    propertyPath: m_EditorCurves.Array.data[0].curve.m_Curve.Array.data[0].outWeight
    value: 0.33333334
    objectReference: {fileID: 0}
  - target: {fileID: 0}
    propertyPath: m_EditorCurves.Array.data[0].curve.m_Curve.Array.data[1].time
    value: 0.36666667
    objectReference: {fileID: 0}
  - target: {fileID: 0}
    propertyPath: m_EditorCurves.Array.data[0].curve.m_Curve.Array.data[1].value
    value: 1
    objectReference: {fileID: 0}
  - target: {fileID: 0}
    propertyPath: m_EditorCurves.Array.data[0].curve.m_Curve.Array.data[1].inSlope
    value: 0
    objectReference: {fileID: 0}
  - target: {fileID: 0}
    propertyPath: m_EditorCurves.Array.data[0].curve.m_Curve.Array.data[1].outSlope
    value: 0
    objectReference: {fileID: 0}
  - target: {fileID: 0}
    propertyPath: m_EditorCurves.Array.data[0].curve.m_Curve.Array.data[1].tangentMode
    value: 136
    objectReference: {fileID: 0}
  - target: {fileID: 0}
    propertyPath: m_EditorCurves.Array.data[0].curve.m_Curve.Array.data[1].weightedMode
    value: 0
    objectReference: {fileID: 0}
  - target: {fileID: 0}
    propertyPath: m_EditorCurves.Array.data[0].curve.m_Curve.Array.data[1].inWeight
    value: 0.33333334
    objectReference: {fileID: 0}
  - target: {fileID: 0}
    propertyPath: m_EditorCurves.Array.data[0].curve.m_Curve.Array.data[1].outWeight
    value: 0.33333334
    objectReference: {fileID: 0}
  - target: {fileID: 0}
    propertyPath: m_EditorCurves.Array.data[0].curve.m_Curve.Array.data[2].time
    value: 1.1333333
    objectReference: {fileID: 0}
  - target: {fileID: 0}
    propertyPath: m_EditorCurves.Array.data[0].curve.m_Curve.Array.data[2].value
    value: 1
    objectReference: {fileID: 0}
  - target: {fileID: 0}
    propertyPath: m_EditorCurves.Array.data[0].curve.m_Curve.Array.data[2].inSlope
    value: 0
    objectReference: {fileID: 0}
  - target: {fileID: 0}
    propertyPath: m_EditorCurves.Array.data[0].curve.m_Curve.Array.data[2].outSlope
    value: 0
    objectReference: {fileID: 0}
  - target: {fileID: 0}
    propertyPath: m_EditorCurves.Array.data[0].curve.m_Curve.Array.data[2].tangentMode
    value: 136
    objectReference: {fileID: 0}
  - target: {fileID: 0}
    propertyPath: m_EditorCurves.Array.data[0].curve.m_Curve.Array.data[2].weightedMode
    value: 0
    objectReference: {fileID: 0}
  - target: {fileID: 0}
    propertyPath: m_EditorCurves.Array.data[0].curve.m_Curve.Array.data[2].inWeight
    value: 0.33333334
    objectReference: {fileID: 0}
  - target: {fileID: 0}
    propertyPath: m_EditorCurves.Array.data[0].curve.m_Curve.Array.data[2].outWeight
    value: 0.33333334
    objectReference: {fileID: 0}
  - target: {fileID: 0}
    propertyPath: m_EditorCurves.Array.data[0].curve.m_Curve.Array.data[3].time
    value: 1.5
    objectReference: {fileID: 0}
  - target: {fileID: 0}
    propertyPath: m_EditorCurves.Array.data[0].curve.m_Curve.Array.data[3].value
    value: 0
    objectReference: {fileID: 0}
  - target: {fileID: 0}
    propertyPath: m_EditorCurves.Array.data[0].curve.m_Curve.Array.data[3].inSlope
    value: 0
    objectReference: {fileID: 0}
  - target: {fileID: 0}
    propertyPath: m_EditorCurves.Array.data[0].curve.m_Curve.Array.data[3].outSlope
    value: 0
    objectReference: {fileID: 0}
  - target: {fileID: 0}
    propertyPath: m_EditorCurves.Array.data[0].curve.m_Curve.Array.data[3].tangentMode
    value: 136
    objectReference: {fileID: 0}
  - target: {fileID: 0}
    propertyPath: m_EditorCurves.Array.data[0].curve.m_Curve.Array.data[3].weightedMode
    value: 0
    objectReference: {fileID: 0}
  - target: {fileID: 0}
    propertyPath: m_EditorCurves.Array.data[0].curve.m_Curve.Array.data[3].inWeight
    value: 0.33333334
    objectReference: {fileID: 0}
  - target: {fileID: 0}
    propertyPath: m_EditorCurves.Array.data[0].curve.m_Curve.Array.data[3].outWeight
    value: 0.33333334
    objectReference: {fileID: 0}
  - target: {fileID: 0}
    propertyPath: m_EditorCurves.Array.data[0].curve.m_PreInfinity
    value: 2
    objectReference: {fileID: 0}
  - target: {fileID: 0}
    propertyPath: m_EditorCurves.Array.data[0].curve.m_PostInfinity
    value: 2
    objectReference: {fileID: 0}
  - target: {fileID: 0}
    propertyPath: m_EditorCurves.Array.data[0].curve.m_RotationOrder
    value: 4
    objectReference: {fileID: 0}
  - target: {fileID: 0}
    propertyPath: m_EditorCurves.Array.data[0].attribute
    value: m_LocalScale.x
    objectReference: {fileID: 0}
  - target: {fileID: 0}
    propertyPath: m_EditorCurves.Array.data[0].path
    value: Container
    objectReference: {fileID: 0}
  - target: {fileID: 0}
    propertyPath: m_EditorCurves.Array.data[0].classID
    value: 224
    objectReference: {fileID: 0}
  - target: {fileID: 0}
    propertyPath: m_EditorCurves.Array.data[0].script
    value: 
    objectReference: {fileID: 0}
  - target: {fileID: 0}
    propertyPath: m_EditorCurves.Array.data[1].curve.m_Curve.Array.size
    value: 4
    objectReference: {fileID: 0}
  - target: {fileID: 0}
    propertyPath: m_EditorCurves.Array.data[1].curve.m_Curve.Array.data[0].time
    value: 0
    objectReference: {fileID: 0}
  - target: {fileID: 0}
    propertyPath: m_EditorCurves.Array.data[1].curve.m_Curve.Array.data[0].value
    value: 0
    objectReference: {fileID: 0}
  - target: {fileID: 0}
    propertyPath: m_EditorCurves.Array.data[1].curve.m_Curve.Array.data[0].inSlope
    value: 0
    objectReference: {fileID: 0}
  - target: {fileID: 0}
    propertyPath: m_EditorCurves.Array.data[1].curve.m_Curve.Array.data[0].outSlope
    value: 0
    objectReference: {fileID: 0}
  - target: {fileID: 0}
    propertyPath: m_EditorCurves.Array.data[1].curve.m_Curve.Array.data[0].tangentMode
    value: 136
    objectReference: {fileID: 0}
  - target: {fileID: 0}
    propertyPath: m_EditorCurves.Array.data[1].curve.m_Curve.Array.data[0].weightedMode
    value: 0
    objectReference: {fileID: 0}
  - target: {fileID: 0}
    propertyPath: m_EditorCurves.Array.data[1].curve.m_Curve.Array.data[0].inWeight
    value: 0.33333334
    objectReference: {fileID: 0}
  - target: {fileID: 0}
    propertyPath: m_EditorCurves.Array.data[1].curve.m_Curve.Array.data[0].outWeight
    value: 0.33333334
    objectReference: {fileID: 0}
  - target: {fileID: 0}
    propertyPath: m_EditorCurves.Array.data[1].curve.m_Curve.Array.data[1].time
    value: 0.36666667
    objectReference: {fileID: 0}
  - target: {fileID: 0}
    propertyPath: m_EditorCurves.Array.data[1].curve.m_Curve.Array.data[1].value
    value: 1
    objectReference: {fileID: 0}
  - target: {fileID: 0}
    propertyPath: m_EditorCurves.Array.data[1].curve.m_Curve.Array.data[1].inSlope
    value: 0
    objectReference: {fileID: 0}
  - target: {fileID: 0}
    propertyPath: m_EditorCurves.Array.data[1].curve.m_Curve.Array.data[1].outSlope
    value: 0
    objectReference: {fileID: 0}
  - target: {fileID: 0}
    propertyPath: m_EditorCurves.Array.data[1].curve.m_Curve.Array.data[1].tangentMode
    value: 136
    objectReference: {fileID: 0}
  - target: {fileID: 0}
    propertyPath: m_EditorCurves.Array.data[1].curve.m_Curve.Array.data[1].weightedMode
    value: 0
    objectReference: {fileID: 0}
  - target: {fileID: 0}
    propertyPath: m_EditorCurves.Array.data[1].curve.m_Curve.Array.data[1].inWeight
    value: 0.33333334
    objectReference: {fileID: 0}
  - target: {fileID: 0}
    propertyPath: m_EditorCurves.Array.data[1].curve.m_Curve.Array.data[1].outWeight
    value: 0.33333334
    objectReference: {fileID: 0}
  - target: {fileID: 0}
    propertyPath: m_EditorCurves.Array.data[1].curve.m_Curve.Array.data[2].time
    value: 1.1333333
    objectReference: {fileID: 0}
  - target: {fileID: 0}
    propertyPath: m_EditorCurves.Array.data[1].curve.m_Curve.Array.data[2].value
    value: 1
    objectReference: {fileID: 0}
  - target: {fileID: 0}
    propertyPath: m_EditorCurves.Array.data[1].curve.m_Curve.Array.data[2].inSlope
    value: 0
    objectReference: {fileID: 0}
  - target: {fileID: 0}
    propertyPath: m_EditorCurves.Array.data[1].curve.m_Curve.Array.data[2].outSlope
    value: 0
    objectReference: {fileID: 0}
  - target: {fileID: 0}
    propertyPath: m_EditorCurves.Array.data[1].curve.m_Curve.Array.data[2].tangentMode
    value: 136
    objectReference: {fileID: 0}
  - target: {fileID: 0}
    propertyPath: m_EditorCurves.Array.data[1].curve.m_Curve.Array.data[2].weightedMode
    value: 0
    objectReference: {fileID: 0}
  - target: {fileID: 0}
    propertyPath: m_EditorCurves.Array.data[1].curve.m_Curve.Array.data[2].inWeight
    value: 0.33333334
    objectReference: {fileID: 0}
  - target: {fileID: 0}
    propertyPath: m_EditorCurves.Array.data[1].curve.m_Curve.Array.data[2].outWeight
    value: 0.33333334
    objectReference: {fileID: 0}
  - target: {fileID: 0}
    propertyPath: m_EditorCurves.Array.data[1].curve.m_Curve.Array.data[3].time
    value: 1.5
    objectReference: {fileID: 0}
  - target: {fileID: 0}
    propertyPath: m_EditorCurves.Array.data[1].curve.m_Curve.Array.data[3].value
    value: 0
    objectReference: {fileID: 0}
  - target: {fileID: 0}
    propertyPath: m_EditorCurves.Array.data[1].curve.m_Curve.Array.data[3].inSlope
    value: 0
    objectReference: {fileID: 0}
  - target: {fileID: 0}
    propertyPath: m_EditorCurves.Array.data[1].curve.m_Curve.Array.data[3].outSlope
    value: 0
    objectReference: {fileID: 0}
  - target: {fileID: 0}
    propertyPath: m_EditorCurves.Array.data[1].curve.m_Curve.Array.data[3].tangentMode
    value: 136
    objectReference: {fileID: 0}
  - target: {fileID: 0}
    propertyPath: m_EditorCurves.Array.data[1].curve.m_Curve.Array.data[3].weightedMode
    value: 0
    objectReference: {fileID: 0}
  - target: {fileID: 0}
    propertyPath: m_EditorCurves.Array.data[1].curve.m_Curve.Array.data[3].inWeight
    value: 0.33333334
    objectReference: {fileID: 0}
  - target: {fileID: 0}
    propertyPath: m_EditorCurves.Array.data[1].curve.m_Curve.Array.data[3].outWeight
    value: 0.33333334
    objectReference: {fileID: 0}
  - target: {fileID: 0}
    propertyPath: m_EditorCurves.Array.data[1].curve.m_PreInfinity
    value: 2
    objectReference: {fileID: 0}
  - target: {fileID: 0}
    propertyPath: m_EditorCurves.Array.data[1].curve.m_PostInfinity
    value: 2
    objectReference: {fileID: 0}
  - target: {fileID: 0}
    propertyPath: m_EditorCurves.Array.data[1].curve.m_RotationOrder
    value: 4
    objectReference: {fileID: 0}
  - target: {fileID: 0}
    propertyPath: m_EditorCurves.Array.data[1].attribute
    value: m_LocalScale.y
    objectReference: {fileID: 0}
  - target: {fileID: 0}
    propertyPath: m_EditorCurves.Array.data[1].path
    value: Container
    objectReference: {fileID: 0}
  - target: {fileID: 0}
    propertyPath: m_EditorCurves.Array.data[1].classID
    value: 224
    objectReference: {fileID: 0}
  - target: {fileID: 0}
    propertyPath: m_EditorCurves.Array.data[1].script
    value: 
    objectReference: {fileID: 0}
  - target: {fileID: 0}
    propertyPath: m_EditorCurves.Array.data[2].curve.m_Curve.Array.size
    value: 4
    objectReference: {fileID: 0}
  - target: {fileID: 0}
    propertyPath: m_EditorCurves.Array.data[2].curve.m_Curve.Array.data[0].time
    value: 0
    objectReference: {fileID: 0}
  - target: {fileID: 0}
    propertyPath: m_EditorCurves.Array.data[2].curve.m_Curve.Array.data[0].value
    value: 1
    objectReference: {fileID: 0}
  - target: {fileID: 0}
    propertyPath: m_EditorCurves.Array.data[2].curve.m_Curve.Array.data[0].inSlope
    value: 0
    objectReference: {fileID: 0}
  - target: {fileID: 0}
    propertyPath: m_EditorCurves.Array.data[2].curve.m_Curve.Array.data[0].outSlope
    value: 0
    objectReference: {fileID: 0}
  - target: {fileID: 0}
    propertyPath: m_EditorCurves.Array.data[2].curve.m_Curve.Array.data[0].tangentMode
    value: 136
    objectReference: {fileID: 0}
  - target: {fileID: 0}
    propertyPath: m_EditorCurves.Array.data[2].curve.m_Curve.Array.data[0].weightedMode
    value: 0
    objectReference: {fileID: 0}
  - target: {fileID: 0}
    propertyPath: m_EditorCurves.Array.data[2].curve.m_Curve.Array.data[0].inWeight
    value: 0.33333334
    objectReference: {fileID: 0}
  - target: {fileID: 0}
    propertyPath: m_EditorCurves.Array.data[2].curve.m_Curve.Array.data[0].outWeight
    value: 0.33333334
    objectReference: {fileID: 0}
  - target: {fileID: 0}
    propertyPath: m_EditorCurves.Array.data[2].curve.m_Curve.Array.data[1].time
    value: 0.36666667
    objectReference: {fileID: 0}
  - target: {fileID: 0}
    propertyPath: m_EditorCurves.Array.data[2].curve.m_Curve.Array.data[1].value
    value: 1
    objectReference: {fileID: 0}
  - target: {fileID: 0}
    propertyPath: m_EditorCurves.Array.data[2].curve.m_Curve.Array.data[1].inSlope
    value: 0
    objectReference: {fileID: 0}
  - target: {fileID: 0}
    propertyPath: m_EditorCurves.Array.data[2].curve.m_Curve.Array.data[1].outSlope
    value: 0
    objectReference: {fileID: 0}
  - target: {fileID: 0}
    propertyPath: m_EditorCurves.Array.data[2].curve.m_Curve.Array.data[1].tangentMode
    value: 136
    objectReference: {fileID: 0}
  - target: {fileID: 0}
    propertyPath: m_EditorCurves.Array.data[2].curve.m_Curve.Array.data[1].weightedMode
    value: 0
    objectReference: {fileID: 0}
  - target: {fileID: 0}
    propertyPath: m_EditorCurves.Array.data[2].curve.m_Curve.Array.data[1].inWeight
    value: 0.33333334
    objectReference: {fileID: 0}
  - target: {fileID: 0}
    propertyPath: m_EditorCurves.Array.data[2].curve.m_Curve.Array.data[1].outWeight
    value: 0.33333334
    objectReference: {fileID: 0}
  - target: {fileID: 0}
    propertyPath: m_EditorCurves.Array.data[2].curve.m_Curve.Array.data[2].time
    value: 1.1333333
    objectReference: {fileID: 0}
  - target: {fileID: 0}
    propertyPath: m_EditorCurves.Array.data[2].curve.m_Curve.Array.data[2].value
    value: 1
    objectReference: {fileID: 0}
  - target: {fileID: 0}
    propertyPath: m_EditorCurves.Array.data[2].curve.m_Curve.Array.data[2].inSlope
    value: 0
    objectReference: {fileID: 0}
  - target: {fileID: 0}
    propertyPath: m_EditorCurves.Array.data[2].curve.m_Curve.Array.data[2].outSlope
    value: 0
    objectReference: {fileID: 0}
  - target: {fileID: 0}
    propertyPath: m_EditorCurves.Array.data[2].curve.m_Curve.Array.data[2].tangentMode
    value: 136
    objectReference: {fileID: 0}
  - target: {fileID: 0}
    propertyPath: m_EditorCurves.Array.data[2].curve.m_Curve.Array.data[2].weightedMode
    value: 0
    objectReference: {fileID: 0}
  - target: {fileID: 0}
    propertyPath: m_EditorCurves.Array.data[2].curve.m_Curve.Array.data[2].inWeight
    value: 0.33333334
    objectReference: {fileID: 0}
  - target: {fileID: 0}
    propertyPath: m_EditorCurves.Array.data[2].curve.m_Curve.Array.data[2].outWeight
    value: 0.33333334
    objectReference: {fileID: 0}
  - target: {fileID: 0}
    propertyPath: m_EditorCurves.Array.data[2].curve.m_Curve.Array.data[3].time
    value: 1.5
    objectReference: {fileID: 0}
  - target: {fileID: 0}
    propertyPath: m_EditorCurves.Array.data[2].curve.m_Curve.Array.data[3].value
    value: 1
    objectReference: {fileID: 0}
  - target: {fileID: 0}
    propertyPath: m_EditorCurves.Array.data[2].curve.m_Curve.Array.data[3].inSlope
    value: 0
    objectReference: {fileID: 0}
  - target: {fileID: 0}
    propertyPath: m_EditorCurves.Array.data[2].curve.m_Curve.Array.data[3].outSlope
    value: 0
    objectReference: {fileID: 0}
  - target: {fileID: 0}
    propertyPath: m_EditorCurves.Array.data[2].curve.m_Curve.Array.data[3].tangentMode
    value: 136
    objectReference: {fileID: 0}
  - target: {fileID: 0}
    propertyPath: m_EditorCurves.Array.data[2].curve.m_Curve.Array.data[3].weightedMode
    value: 0
    objectReference: {fileID: 0}
  - target: {fileID: 0}
    propertyPath: m_EditorCurves.Array.data[2].curve.m_Curve.Array.data[3].inWeight
    value: 0.33333334
    objectReference: {fileID: 0}
  - target: {fileID: 0}
    propertyPath: m_EditorCurves.Array.data[2].curve.m_Curve.Array.data[3].outWeight
    value: 0.33333334
    objectReference: {fileID: 0}
  - target: {fileID: 0}
    propertyPath: m_EditorCurves.Array.data[2].curve.m_PreInfinity
    value: 2
    objectReference: {fileID: 0}
  - target: {fileID: 0}
    propertyPath: m_EditorCurves.Array.data[2].curve.m_PostInfinity
    value: 2
    objectReference: {fileID: 0}
  - target: {fileID: 0}
    propertyPath: m_EditorCurves.Array.data[2].curve.m_RotationOrder
    value: 4
    objectReference: {fileID: 0}
  - target: {fileID: 0}
    propertyPath: m_EditorCurves.Array.data[2].attribute
    value: m_LocalScale.z
    objectReference: {fileID: 0}
  - target: {fileID: 0}
    propertyPath: m_EditorCurves.Array.data[2].path
    value: Container
    objectReference: {fileID: 0}
  - target: {fileID: 0}
    propertyPath: m_EditorCurves.Array.data[2].classID
    value: 224
    objectReference: {fileID: 0}
  - target: {fileID: 0}
    propertyPath: m_EditorCurves.Array.data[2].script
    value: 
    objectReference: {fileID: 0}
  - target: {fileID: 0}
    propertyPath: m_EditorCurves.Array.data[3].curve.m_Curve.Array.size
    value: 4
    objectReference: {fileID: 0}
  - target: {fileID: 0}
    propertyPath: m_EditorCurves.Array.data[3].curve.m_Curve.Array.data[0].time
    value: 0
    objectReference: {fileID: 0}
  - target: {fileID: 0}
    propertyPath: m_EditorCurves.Array.data[3].curve.m_Curve.Array.data[0].value
    value: 0
    objectReference: {fileID: 0}
  - target: {fileID: 0}
    propertyPath: m_EditorCurves.Array.data[3].curve.m_Curve.Array.data[0].inSlope
    value: 0
    objectReference: {fileID: 0}
  - target: {fileID: 0}
    propertyPath: m_EditorCurves.Array.data[3].curve.m_Curve.Array.data[0].outSlope
    value: 0
    objectReference: {fileID: 0}
  - target: {fileID: 0}
    propertyPath: m_EditorCurves.Array.data[3].curve.m_Curve.Array.data[0].tangentMode
    value: 136
    objectReference: {fileID: 0}
  - target: {fileID: 0}
    propertyPath: m_EditorCurves.Array.data[3].curve.m_Curve.Array.data[0].weightedMode
    value: 0
    objectReference: {fileID: 0}
  - target: {fileID: 0}
    propertyPath: m_EditorCurves.Array.data[3].curve.m_Curve.Array.data[0].inWeight
    value: 0.33333334
    objectReference: {fileID: 0}
  - target: {fileID: 0}
    propertyPath: m_EditorCurves.Array.data[3].curve.m_Curve.Array.data[0].outWeight
    value: 0.33333334
    objectReference: {fileID: 0}
  - target: {fileID: 0}
    propertyPath: m_EditorCurves.Array.data[3].curve.m_Curve.Array.data[1].time
    value: 0.36666667
    objectReference: {fileID: 0}
  - target: {fileID: 0}
    propertyPath: m_EditorCurves.Array.data[3].curve.m_Curve.Array.data[1].value
    value: 0
    objectReference: {fileID: 0}
  - target: {fileID: 0}
    propertyPath: m_EditorCurves.Array.data[3].curve.m_Curve.Array.data[1].inSlope
    value: 0
    objectReference: {fileID: 0}
  - target: {fileID: 0}
    propertyPath: m_EditorCurves.Array.data[3].curve.m_Curve.Array.data[1].outSlope
    value: 0
    objectReference: {fileID: 0}
  - target: {fileID: 0}
    propertyPath: m_EditorCurves.Array.data[3].curve.m_Curve.Array.data[1].tangentMode
    value: 136
    objectReference: {fileID: 0}
  - target: {fileID: 0}
    propertyPath: m_EditorCurves.Array.data[3].curve.m_Curve.Array.data[1].weightedMode
    value: 0
    objectReference: {fileID: 0}
  - target: {fileID: 0}
    propertyPath: m_EditorCurves.Array.data[3].curve.m_Curve.Array.data[1].inWeight
    value: 0.33333334
    objectReference: {fileID: 0}
  - target: {fileID: 0}
    propertyPath: m_EditorCurves.Array.data[3].curve.m_Curve.Array.data[1].outWeight
    value: 0.33333334
    objectReference: {fileID: 0}
  - target: {fileID: 0}
    propertyPath: m_EditorCurves.Array.data[3].curve.m_Curve.Array.data[2].time
    value: 1.1333333
    objectReference: {fileID: 0}
  - target: {fileID: 0}
    propertyPath: m_EditorCurves.Array.data[3].curve.m_Curve.Array.data[2].value
    value: 0
    objectReference: {fileID: 0}
  - target: {fileID: 0}
    propertyPath: m_EditorCurves.Array.data[3].curve.m_Curve.Array.data[2].inSlope
    value: 0
    objectReference: {fileID: 0}
  - target: {fileID: 0}
    propertyPath: m_EditorCurves.Array.data[3].curve.m_Curve.Array.data[2].outSlope
    value: 0
    objectReference: {fileID: 0}
  - target: {fileID: 0}
    propertyPath: m_EditorCurves.Array.data[3].curve.m_Curve.Array.data[2].tangentMode
    value: 136
    objectReference: {fileID: 0}
  - target: {fileID: 0}
    propertyPath: m_EditorCurves.Array.data[3].curve.m_Curve.Array.data[2].weightedMode
    value: 0
    objectReference: {fileID: 0}
  - target: {fileID: 0}
    propertyPath: m_EditorCurves.Array.data[3].curve.m_Curve.Array.data[2].inWeight
    value: 0.33333334
    objectReference: {fileID: 0}
  - target: {fileID: 0}
    propertyPath: m_EditorCurves.Array.data[3].curve.m_Curve.Array.data[2].outWeight
    value: 0.33333334
    objectReference: {fileID: 0}
  - target: {fileID: 0}
    propertyPath: m_EditorCurves.Array.data[3].curve.m_Curve.Array.data[3].time
    value: 1.5
    objectReference: {fileID: 0}
  - target: {fileID: 0}
    propertyPath: m_EditorCurves.Array.data[3].curve.m_Curve.Array.data[3].value
    value: 0
    objectReference: {fileID: 0}
  - target: {fileID: 0}
    propertyPath: m_EditorCurves.Array.data[3].curve.m_Curve.Array.data[3].inSlope
    value: 0
    objectReference: {fileID: 0}
  - target: {fileID: 0}
    propertyPath: m_EditorCurves.Array.data[3].curve.m_Curve.Array.data[3].outSlope
    value: 0
    objectReference: {fileID: 0}
  - target: {fileID: 0}
    propertyPath: m_EditorCurves.Array.data[3].curve.m_Curve.Array.data[3].tangentMode
    value: 136
    objectReference: {fileID: 0}
  - target: {fileID: 0}
    propertyPath: m_EditorCurves.Array.data[3].curve.m_Curve.Array.data[3].weightedMode
    value: 0
    objectReference: {fileID: 0}
  - target: {fileID: 0}
    propertyPath: m_EditorCurves.Array.data[3].curve.m_Curve.Array.data[3].inWeight
    value: 0.33333334
    objectReference: {fileID: 0}
  - target: {fileID: 0}
    propertyPath: m_EditorCurves.Array.data[3].curve.m_Curve.Array.data[3].outWeight
    value: 0.33333334
    objectReference: {fileID: 0}
  - target: {fileID: 0}
    propertyPath: m_EditorCurves.Array.data[3].curve.m_PreInfinity
    value: 2
    objectReference: {fileID: 0}
  - target: {fileID: 0}
    propertyPath: m_EditorCurves.Array.data[3].curve.m_PostInfinity
    value: 2
    objectReference: {fileID: 0}
  - target: {fileID: 0}
    propertyPath: m_EditorCurves.Array.data[3].curve.m_RotationOrder
    value: 4
    objectReference: {fileID: 0}
  - target: {fileID: 0}
    propertyPath: m_EditorCurves.Array.data[3].attribute
    value: localEulerAnglesRaw.x
    objectReference: {fileID: 0}
  - target: {fileID: 0}
    propertyPath: m_EditorCurves.Array.data[3].path
    value: Container
    objectReference: {fileID: 0}
  - target: {fileID: 0}
    propertyPath: m_EditorCurves.Array.data[3].classID
    value: 224
    objectReference: {fileID: 0}
  - target: {fileID: 0}
    propertyPath: m_EditorCurves.Array.data[3].script
    value: 
    objectReference: {fileID: 0}
  - target: {fileID: 0}
    propertyPath: m_EditorCurves.Array.data[4].curve.m_Curve.Array.size
    value: 4
    objectReference: {fileID: 0}
  - target: {fileID: 0}
    propertyPath: m_EditorCurves.Array.data[4].curve.m_Curve.Array.data[0].time
    value: 0
    objectReference: {fileID: 0}
  - target: {fileID: 0}
    propertyPath: m_EditorCurves.Array.data[4].curve.m_Curve.Array.data[0].value
    value: 0
    objectReference: {fileID: 0}
  - target: {fileID: 0}
    propertyPath: m_EditorCurves.Array.data[4].curve.m_Curve.Array.data[0].inSlope
    value: 0
    objectReference: {fileID: 0}
  - target: {fileID: 0}
    propertyPath: m_EditorCurves.Array.data[4].curve.m_Curve.Array.data[0].outSlope
    value: 0
    objectReference: {fileID: 0}
  - target: {fileID: 0}
    propertyPath: m_EditorCurves.Array.data[4].curve.m_Curve.Array.data[0].tangentMode
    value: 136
    objectReference: {fileID: 0}
  - target: {fileID: 0}
    propertyPath: m_EditorCurves.Array.data[4].curve.m_Curve.Array.data[0].weightedMode
    value: 0
    objectReference: {fileID: 0}
  - target: {fileID: 0}
    propertyPath: m_EditorCurves.Array.data[4].curve.m_Curve.Array.data[0].inWeight
    value: 0.33333334
    objectReference: {fileID: 0}
  - target: {fileID: 0}
    propertyPath: m_EditorCurves.Array.data[4].curve.m_Curve.Array.data[0].outWeight
    value: 0.33333334
    objectReference: {fileID: 0}
  - target: {fileID: 0}
    propertyPath: m_EditorCurves.Array.data[4].curve.m_Curve.Array.data[1].time
    value: 0.36666667
    objectReference: {fileID: 0}
  - target: {fileID: 0}
    propertyPath: m_EditorCurves.Array.data[4].curve.m_Curve.Array.data[1].value
    value: 0
    objectReference: {fileID: 0}
  - target: {fileID: 0}
    propertyPath: m_EditorCurves.Array.data[4].curve.m_Curve.Array.data[1].inSlope
    value: 0
    objectReference: {fileID: 0}
  - target: {fileID: 0}
    propertyPath: m_EditorCurves.Array.data[4].curve.m_Curve.Array.data[1].outSlope
    value: 0
    objectReference: {fileID: 0}
  - target: {fileID: 0}
    propertyPath: m_EditorCurves.Array.data[4].curve.m_Curve.Array.data[1].tangentMode
    value: 136
    objectReference: {fileID: 0}
  - target: {fileID: 0}
    propertyPath: m_EditorCurves.Array.data[4].curve.m_Curve.Array.data[1].weightedMode
    value: 0
    objectReference: {fileID: 0}
  - target: {fileID: 0}
    propertyPath: m_EditorCurves.Array.data[4].curve.m_Curve.Array.data[1].inWeight
    value: 0.33333334
    objectReference: {fileID: 0}
  - target: {fileID: 0}
    propertyPath: m_EditorCurves.Array.data[4].curve.m_Curve.Array.data[1].outWeight
    value: 0.33333334
    objectReference: {fileID: 0}
  - target: {fileID: 0}
    propertyPath: m_EditorCurves.Array.data[4].curve.m_Curve.Array.data[2].time
    value: 1.1333333
    objectReference: {fileID: 0}
  - target: {fileID: 0}
    propertyPath: m_EditorCurves.Array.data[4].curve.m_Curve.Array.data[2].value
    value: 0
    objectReference: {fileID: 0}
  - target: {fileID: 0}
    propertyPath: m_EditorCurves.Array.data[4].curve.m_Curve.Array.data[2].inSlope
    value: 0
    objectReference: {fileID: 0}
  - target: {fileID: 0}
    propertyPath: m_EditorCurves.Array.data[4].curve.m_Curve.Array.data[2].outSlope
    value: 0
    objectReference: {fileID: 0}
  - target: {fileID: 0}
    propertyPath: m_EditorCurves.Array.data[4].curve.m_Curve.Array.data[2].tangentMode
    value: 136
    objectReference: {fileID: 0}
  - target: {fileID: 0}
    propertyPath: m_EditorCurves.Array.data[4].curve.m_Curve.Array.data[2].weightedMode
    value: 0
    objectReference: {fileID: 0}
  - target: {fileID: 0}
    propertyPath: m_EditorCurves.Array.data[4].curve.m_Curve.Array.data[2].inWeight
    value: 0.33333334
    objectReference: {fileID: 0}
  - target: {fileID: 0}
    propertyPath: m_EditorCurves.Array.data[4].curve.m_Curve.Array.data[2].outWeight
    value: 0.33333334
    objectReference: {fileID: 0}
  - target: {fileID: 0}
    propertyPath: m_EditorCurves.Array.data[4].curve.m_Curve.Array.data[3].time
    value: 1.5
    objectReference: {fileID: 0}
  - target: {fileID: 0}
    propertyPath: m_EditorCurves.Array.data[4].curve.m_Curve.Array.data[3].value
    value: 0
    objectReference: {fileID: 0}
  - target: {fileID: 0}
    propertyPath: m_EditorCurves.Array.data[4].curve.m_Curve.Array.data[3].inSlope
    value: 0
    objectReference: {fileID: 0}
  - target: {fileID: 0}
    propertyPath: m_EditorCurves.Array.data[4].curve.m_Curve.Array.data[3].outSlope
    value: 0
    objectReference: {fileID: 0}
  - target: {fileID: 0}
    propertyPath: m_EditorCurves.Array.data[4].curve.m_Curve.Array.data[3].tangentMode
    value: 136
    objectReference: {fileID: 0}
  - target: {fileID: 0}
    propertyPath: m_EditorCurves.Array.data[4].curve.m_Curve.Array.data[3].weightedMode
    value: 0
    objectReference: {fileID: 0}
  - target: {fileID: 0}
    propertyPath: m_EditorCurves.Array.data[4].curve.m_Curve.Array.data[3].inWeight
    value: 0.33333334
    objectReference: {fileID: 0}
  - target: {fileID: 0}
    propertyPath: m_EditorCurves.Array.data[4].curve.m_Curve.Array.data[3].outWeight
    value: 0.33333334
    objectReference: {fileID: 0}
  - target: {fileID: 0}
    propertyPath: m_EditorCurves.Array.data[4].curve.m_PreInfinity
    value: 2
    objectReference: {fileID: 0}
  - target: {fileID: 0}
    propertyPath: m_EditorCurves.Array.data[4].curve.m_PostInfinity
    value: 2
    objectReference: {fileID: 0}
  - target: {fileID: 0}
    propertyPath: m_EditorCurves.Array.data[4].curve.m_RotationOrder
    value: 4
    objectReference: {fileID: 0}
  - target: {fileID: 0}
    propertyPath: m_EditorCurves.Array.data[4].attribute
    value: localEulerAnglesRaw.y
    objectReference: {fileID: 0}
  - target: {fileID: 0}
    propertyPath: m_EditorCurves.Array.data[4].path
    value: Container
    objectReference: {fileID: 0}
  - target: {fileID: 0}
    propertyPath: m_EditorCurves.Array.data[4].classID
    value: 224
    objectReference: {fileID: 0}
  - target: {fileID: 0}
    propertyPath: m_EditorCurves.Array.data[4].script
    value: 
    objectReference: {fileID: 0}
  - target: {fileID: 0}
    propertyPath: m_EditorCurves.Array.data[5].curve.m_Curve.Array.size
    value: 4
    objectReference: {fileID: 0}
  - target: {fileID: 0}
    propertyPath: m_EditorCurves.Array.data[5].curve.m_Curve.Array.data[0].time
    value: 0
    objectReference: {fileID: 0}
  - target: {fileID: 0}
    propertyPath: m_EditorCurves.Array.data[5].curve.m_Curve.Array.data[0].value
    value: 180
    objectReference: {fileID: 0}
  - target: {fileID: 0}
    propertyPath: m_EditorCurves.Array.data[5].curve.m_Curve.Array.data[0].inSlope
    value: 0
    objectReference: {fileID: 0}
  - target: {fileID: 0}
    propertyPath: m_EditorCurves.Array.data[5].curve.m_Curve.Array.data[0].outSlope
    value: 0
    objectReference: {fileID: 0}
  - target: {fileID: 0}
    propertyPath: m_EditorCurves.Array.data[5].curve.m_Curve.Array.data[0].tangentMode
    value: 136
    objectReference: {fileID: 0}
  - target: {fileID: 0}
    propertyPath: m_EditorCurves.Array.data[5].curve.m_Curve.Array.data[0].weightedMode
    value: 0
    objectReference: {fileID: 0}
  - target: {fileID: 0}
    propertyPath: m_EditorCurves.Array.data[5].curve.m_Curve.Array.data[0].inWeight
    value: 0.33333334
    objectReference: {fileID: 0}
  - target: {fileID: 0}
    propertyPath: m_EditorCurves.Array.data[5].curve.m_Curve.Array.data[0].outWeight
    value: 0.33333334
    objectReference: {fileID: 0}
  - target: {fileID: 0}
    propertyPath: m_EditorCurves.Array.data[5].curve.m_Curve.Array.data[1].time
    value: 0.36666667
    objectReference: {fileID: 0}
  - target: {fileID: 0}
    propertyPath: m_EditorCurves.Array.data[5].curve.m_Curve.Array.data[1].value
    value: 35
    objectReference: {fileID: 0}
  - target: {fileID: 0}
    propertyPath: m_EditorCurves.Array.data[5].curve.m_Curve.Array.data[1].inSlope
    value: -189.70589
    objectReference: {fileID: 0}
  - target: {fileID: 0}
    propertyPath: m_EditorCurves.Array.data[5].curve.m_Curve.Array.data[1].outSlope
    value: -189.70589
    objectReference: {fileID: 0}
  - target: {fileID: 0}
    propertyPath: m_EditorCurves.Array.data[5].curve.m_Curve.Array.data[1].tangentMode
    value: 136
    objectReference: {fileID: 0}
  - target: {fileID: 0}
    propertyPath: m_EditorCurves.Array.data[5].curve.m_Curve.Array.data[1].weightedMode
    value: 0
    objectReference: {fileID: 0}
  - target: {fileID: 0}
    propertyPath: m_EditorCurves.Array.data[5].curve.m_Curve.Array.data[1].inWeight
    value: 0.33333334
    objectReference: {fileID: 0}
  - target: {fileID: 0}
    propertyPath: m_EditorCurves.Array.data[5].curve.m_Curve.Array.data[1].outWeight
    value: 0.33333334
    objectReference: {fileID: 0}
  - target: {fileID: 0}
    propertyPath: m_EditorCurves.Array.data[5].curve.m_Curve.Array.data[2].time
    value: 1.1333333
    objectReference: {fileID: 0}
  - target: {fileID: 0}
    propertyPath: m_EditorCurves.Array.data[5].curve.m_Curve.Array.data[2].value
    value: -35
    objectReference: {fileID: 0}
  - target: {fileID: 0}
    propertyPath: m_EditorCurves.Array.data[5].curve.m_Curve.Array.data[2].inSlope
    value: -189.70589
    objectReference: {fileID: 0}
  - target: {fileID: 0}
    propertyPath: m_EditorCurves.Array.data[5].curve.m_Curve.Array.data[2].outSlope
    value: -189.70589
    objectReference: {fileID: 0}
  - target: {fileID: 0}
    propertyPath: m_EditorCurves.Array.data[5].curve.m_Curve.Array.data[2].tangentMode
    value: 136
    objectReference: {fileID: 0}
  - target: {fileID: 0}
    propertyPath: m_EditorCurves.Array.data[5].curve.m_Curve.Array.data[2].weightedMode
    value: 0
    objectReference: {fileID: 0}
  - target: {fileID: 0}
    propertyPath: m_EditorCurves.Array.data[5].curve.m_Curve.Array.data[2].inWeight
    value: 0.33333334
    objectReference: {fileID: 0}
  - target: {fileID: 0}
    propertyPath: m_EditorCurves.Array.data[5].curve.m_Curve.Array.data[2].outWeight
    value: 0.33333334
    objectReference: {fileID: 0}
  - target: {fileID: 0}
    propertyPath: m_EditorCurves.Array.data[5].curve.m_Curve.Array.data[3].time
    value: 1.5
    objectReference: {fileID: 0}
  - target: {fileID: 0}
    propertyPath: m_EditorCurves.Array.data[5].curve.m_Curve.Array.data[3].value
    value: -180
    objectReference: {fileID: 0}
  - target: {fileID: 0}
    propertyPath: m_EditorCurves.Array.data[5].curve.m_Curve.Array.data[3].inSlope
    value: 0
    objectReference: {fileID: 0}
  - target: {fileID: 0}
    propertyPath: m_EditorCurves.Array.data[5].curve.m_Curve.Array.data[3].outSlope
    value: 0
    objectReference: {fileID: 0}
  - target: {fileID: 0}
    propertyPath: m_EditorCurves.Array.data[5].curve.m_Curve.Array.data[3].tangentMode
    value: 136
    objectReference: {fileID: 0}
  - target: {fileID: 0}
    propertyPath: m_EditorCurves.Array.data[5].curve.m_Curve.Array.data[3].weightedMode
    value: 0
    objectReference: {fileID: 0}
  - target: {fileID: 0}
    propertyPath: m_EditorCurves.Array.data[5].curve.m_Curve.Array.data[3].inWeight
    value: 0.33333334
    objectReference: {fileID: 0}
  - target: {fileID: 0}
    propertyPath: m_EditorCurves.Array.data[5].curve.m_Curve.Array.data[3].outWeight
    value: 0.33333334
    objectReference: {fileID: 0}
  - target: {fileID: 0}
    propertyPath: m_EditorCurves.Array.data[5].curve.m_PreInfinity
    value: 2
    objectReference: {fileID: 0}
  - target: {fileID: 0}
    propertyPath: m_EditorCurves.Array.data[5].curve.m_PostInfinity
    value: 2
    objectReference: {fileID: 0}
  - target: {fileID: 0}
    propertyPath: m_EditorCurves.Array.data[5].curve.m_RotationOrder
    value: 4
    objectReference: {fileID: 0}
  - target: {fileID: 0}
    propertyPath: m_EditorCurves.Array.data[5].attribute
    value: localEulerAnglesRaw.z
    objectReference: {fileID: 0}
  - target: {fileID: 0}
    propertyPath: m_EditorCurves.Array.data[5].path
    value: Container
    objectReference: {fileID: 0}
  - target: {fileID: 0}
    propertyPath: m_EditorCurves.Array.data[5].classID
    value: 224
    objectReference: {fileID: 0}
  - target: {fileID: 0}
    propertyPath: m_EditorCurves.Array.data[5].script
    value: 
    objectReference: {fileID: 0}
  - target: {fileID: 0}
    propertyPath: m_EulerEditorCurves.Array.size
    value: 3
    objectReference: {fileID: 0}
  - target: {fileID: 0}
    propertyPath: m_EulerEditorCurves.Array.data[0].curve.m_Curve.Array.size
    value: 0
    objectReference: {fileID: 0}
  - target: {fileID: 0}
    propertyPath: m_EulerEditorCurves.Array.data[0].curve.m_PreInfinity
    value: 2
    objectReference: {fileID: 0}
  - target: {fileID: 0}
    propertyPath: m_EulerEditorCurves.Array.data[0].curve.m_PostInfinity
    value: 2
    objectReference: {fileID: 0}
  - target: {fileID: 0}
    propertyPath: m_EulerEditorCurves.Array.data[0].curve.m_RotationOrder
    value: 4
    objectReference: {fileID: 0}
  - target: {fileID: 0}
    propertyPath: m_EulerEditorCurves.Array.data[0].attribute
    value: m_LocalEulerAngles.x
    objectReference: {fileID: 0}
  - target: {fileID: 0}
    propertyPath: m_EulerEditorCurves.Array.data[0].path
    value: Container
    objectReference: {fileID: 0}
  - target: {fileID: 0}
    propertyPath: m_EulerEditorCurves.Array.data[0].classID
    value: 224
    objectReference: {fileID: 0}
  - target: {fileID: 0}
    propertyPath: m_EulerEditorCurves.Array.data[0].script
    value: 
    objectReference: {fileID: 0}
  - target: {fileID: 0}
    propertyPath: m_EulerEditorCurves.Array.data[1].curve.m_Curve.Array.size
    value: 0
    objectReference: {fileID: 0}
  - target: {fileID: 0}
    propertyPath: m_EulerEditorCurves.Array.data[1].curve.m_PreInfinity
    value: 2
    objectReference: {fileID: 0}
  - target: {fileID: 0}
    propertyPath: m_EulerEditorCurves.Array.data[1].curve.m_PostInfinity
    value: 2
    objectReference: {fileID: 0}
  - target: {fileID: 0}
    propertyPath: m_EulerEditorCurves.Array.data[1].curve.m_RotationOrder
    value: 4
    objectReference: {fileID: 0}
  - target: {fileID: 0}
    propertyPath: m_EulerEditorCurves.Array.data[1].attribute
    value: m_LocalEulerAngles.y
    objectReference: {fileID: 0}
  - target: {fileID: 0}
    propertyPath: m_EulerEditorCurves.Array.data[1].path
    value: Container
    objectReference: {fileID: 0}
  - target: {fileID: 0}
    propertyPath: m_EulerEditorCurves.Array.data[1].classID
    value: 224
    objectReference: {fileID: 0}
  - target: {fileID: 0}
    propertyPath: m_EulerEditorCurves.Array.data[1].script
    value: 
    objectReference: {fileID: 0}
  - target: {fileID: 0}
    propertyPath: m_EulerEditorCurves.Array.data[2].curve.m_Curve.Array.size
    value: 0
    objectReference: {fileID: 0}
  - target: {fileID: 0}
    propertyPath: m_EulerEditorCurves.Array.data[2].curve.m_PreInfinity
    value: 2
    objectReference: {fileID: 0}
  - target: {fileID: 0}
    propertyPath: m_EulerEditorCurves.Array.data[2].curve.m_PostInfinity
    value: 2
    objectReference: {fileID: 0}
  - target: {fileID: 0}
    propertyPath: m_EulerEditorCurves.Array.data[2].curve.m_RotationOrder
    value: 4
    objectReference: {fileID: 0}
  - target: {fileID: 0}
    propertyPath: m_EulerEditorCurves.Array.data[2].attribute
    value: m_LocalEulerAngles.z
    objectReference: {fileID: 0}
  - target: {fileID: 0}
    propertyPath: m_EulerEditorCurves.Array.data[2].path
    value: Container
    objectReference: {fileID: 0}
  - target: {fileID: 0}
    propertyPath: m_EulerEditorCurves.Array.data[2].classID
    value: 224
    objectReference: {fileID: 0}
  - target: {fileID: 0}
    propertyPath: m_EulerEditorCurves.Array.data[2].script
    value: 
    objectReference: {fileID: 0}
  - target: {fileID: 0}
    propertyPath: m_HasGenericRootTransform
    value: 0
    objectReference: {fileID: 0}
  - target: {fileID: 0}
    propertyPath: m_HasMotionFloatCurves
    value: 0
    objectReference: {fileID: 0}
  - target: {fileID: 0}
    propertyPath: m_Events.Array.size
    value: 0
    objectReference: {fileID: 0}
