%YAML 1.1
%TAG !u! tag:unity3d.com,2011:
--- !u!114 &11400000
MonoBehaviour:
  m_ObjectHideFlags: 0
  m_CorrespondingSourceObject: {fileID: 0}
  m_PrefabInstance: {fileID: 0}
  m_PrefabAsset: {fileID: 0}
  m_GameObject: {fileID: 0}
  m_Enabled: 1
  m_EditorHideFlags: 0
  m_Script: {fileID: 11500000, guid: 16afee6ab041d41e289b22b4ee3dea45, type: 3}
  m_Name: Enter Slow Motion Animation
  m_EditorClassIdentifier: 
  targetValue: 0.08
  duration: 0.5
  ease: 5
