%YAML 1.1
%TAG !u! tag:unity3d.com,2011:
--- !u!114 &11400000
MonoBehaviour:
  m_ObjectHideFlags: 0
  m_CorrespondingSourceObject: {fileID: 0}
  m_PrefabInstance: {fileID: 0}
  m_PrefabAsset: {fileID: 0}
  m_GameObject: {fileID: 0}
  m_Enabled: 1
  m_EditorHideFlags: 0
  m_Script: {fileID: 11500000, guid: 0ec6aaf8dcbac4082862a55f7e7f6083, type: 3}
  m_Name: Shake
  m_EditorClassIdentifier: 
  shakeDuration: 0.3
  shakeStrength: 0.25
  shakeVibrato: 50
